AIG Interview Presentation Third-Party Liability Claims Analysis and Prediction
…
#change the VehGas to factor
data <- data %>% mutate(VehGas = factor(VehGas, levels = c("Diesel","Regular")), ClaimNb = as.double(ClaimNb))
data

## # A tibble: 678,013 x 12
##    IDpol ClaimNb Exposure VehPower VehAge DrivAge BonusMalus VehBrand
##    <dbl>   <dbl>    <dbl>    <int>  <int>   <int>      <int> <fct>   
##  1     1       1     0.1         5      0      55         50 B12     
##  2     3       1     0.77        5      0      55         50 B12     
##  3     5       1     0.75        6      2      52         50 B12     
##  4    10       1     0.09        7      0      46         50 B12     
##  5    11       1     0.84        7      0      46         50 B12     
##  6    13       1     0.52        6      2      38         50 B12     
##  7    15       1     0.45        6      2      38         50 B12     
##  8    17       1     0.27        7      0      33         68 B12     
##  9    18       1     0.71        7      0      33         68 B12     
## 10    21       1     0.15        7      0      41         50 B12     
## #  with 678,003 more rows, and 4 more variables: VehGas <fct>,
## #   Area <fct>, Density <int>, Region <fct>
…
