Linear Regression Models: Final Project
…
## 
## Attaching package: 'GGally'

## The following object is masked from 'package:dplyr':
## 
##     nasa

datatable(data.frame(X)[1:10, ], options = list(scrollX=T, pageLength = 10))

print(as_tibble(X))

## # A tibble: 846 x 361
##     P4.A P12.A P13.A P16.A P20.A P22.A P28.A P37.A P51.A P54.A P63.A P71.A
##    <dbl> <dbl> <dbl> <dbl> <dbl> <dbl> <dbl> <dbl> <dbl> <dbl> <dbl> <dbl>
##  1     0     0     0     0     0     0     0     0     0     0     0     0
##  2     0     0     0     1     0     0     0     0     0     0     0     0
##  3     0     0     0     0     0     0     0     0     0     0     0     1
##  4     0     0     0     0     0     0     0     0     0     0     0     0
##  5     0     0     0     0     0     0     0     0     0     0     0     0
##  6     0     0     0     0     0     0     0     0     0     0     0     0
##  7     0     0     0     0     0     0     0     0     0     0     0     0
##  8     0     0     0     0     0     0     0     1     0     0     0     0
##  9     0     0     0     1     0     0     0     0     0     0     0     0
## 10     0     0     0     0     0     0     0     0     0     0     0     0
## #  with 836 more rows, and 349 more variables: P73.A <dbl>, P74.A <dbl>,
## #   P79.A <dbl>, P82.A <dbl>, P84.A <dbl>, P91.A <dbl>, P37.C <dbl>,
## #   P63.C <dbl>, P67.C <dbl>, P73.C <dbl>, P82.C <dbl>, P84.C <dbl>,
## #   P91.C <dbl>, P95.C <dbl>, P4.D <dbl>, P12.D <dbl>, P25.D <dbl>,
## #   P34.D <dbl>, P35.D <dbl>, P37.D <dbl>, P60.D <dbl>, P61.D <dbl>,
## #   P63.D <dbl>, P65.D <dbl>, P68.D <dbl>, P69.D <dbl>, P79.D <dbl>,
## #   P83.D <dbl>, P88.D <dbl>, P98.D <dbl>, P7.E <dbl>, P12.E <dbl>,
## #   P16.E <dbl>, P17.E <dbl>, P18.E <dbl>, P20.E <dbl>, P21.E <dbl>,
## #   P34.E <dbl>, P35.E <dbl>, P37.E <dbl>, P47.E <dbl>, P58.E <dbl>,
…
