Titanic
…
Titanic

Yi-Pei Chan

This is the legendary Titanic ML competition on Kaggle (https://www.kaggle.com/c/titanic).

In this challenge, I built several predictive models to answer the question: what sorts of people were more likely to survive? using passenger data (ie name, age, gender, socio-economic class, etc). I used ridge regression, lasso regression, random forest and gradient boosted model to make the survival prediction and compare the error rates among different models. The dataset provided has already been seperated into trainging, and testing set. We can take a look at the two datasets.

train_data

## # A tibble: 891 x 12
##    PassengerId Survived Pclass Name  Sex     Age SibSp Parch Ticket  Fare
##          <dbl>    <dbl>  <dbl> <chr> <chr> <dbl> <dbl> <dbl> <chr>  <dbl>
##  1           1        0      3 Brau male     22     1     0 A/5 2  7.25
##  2           2        1      1 Cumi fema    38     1     0 PC 17 71.3 
##  3           3        1      3 Heik fema    26     0     0 STON/  7.92
##  4           4        1      1 Futr fema    35     1     0 113803 53.1 
##  5           5        0      3 Alle male     35     0     0 373450  8.05
##  6           6        0      3 Mora male     NA     0     0 330877  8.46
##  7           7        0      1 McCa male     54     0     0 17463  51.9 
##  8           8        0      3 Pals male      2     3     1 349909 21.1 
##  9           9        1      3 John fema    27     0     2 347742 11.1 
## 10          10        1      2 Nass fema    14     1     0 237736 30.1 
## #  with 881 more rows, and 2 more variables: Cabin <chr>, Embarked <chr>

test_data

## # A tibble: 418 x 11
##    PassengerId Pclass Name  Sex     Age SibSp Parch Ticket  Fare Cabin
##          <dbl>  <dbl> <chr> <chr> <dbl> <dbl> <dbl> <chr>  <dbl> <chr>
##  1         892      3 Kell male   34.5     0     0 330911  7.83 <NA> 
##  2         893      3 Wilk fema  47       1     0 363272  7    <NA> 
##  3         894      2 Myle male   62       0     0 240276  9.69 <NA> 
##  4         895      3 Wirz male   27       0     0 315154  8.66 <NA> 
##  5         896      3 Hirv fema  22       1     1 31012 12.3  <NA> 
##  6         897      3 Sven male   14       0     0 7538    9.22 <NA> 
##  7         898      3 Conn fema  30       0     0 330972  7.63 <NA> 
##  8         899      2 Cald male   26       1     1 248738 29    <NA> 
##  9         900      3 Abra fema  18       0     0 2657    7.23 <NA> 
## 10         901      3 Davi male   21       2     0 A/4 4 24.2  <NA> 
## #  with 408 more rows, and 1 more variable: Embarked <chr>
…
